﻿{
  "pagination": {
    "object_count": 1,
    "page_number": 1,
    "page_size": 1,
    "page_count": 1,
    "continuation": "dGhpcyBpcyBhIGNvbnRpbnVhdGlvbiB0b2tlbg",
    "has_more_items": false
  },
  "attendees": [
    {
      "id": "12345",
      "created": "2018-05-12T02:00:00Z",
      "changed": "2018-05-12T02:00:00Z",
      "ticket_class_id": "12345",
      "ticket_class_name": "General Admission",
      "profile": {
        "name": "John Smith",
        "email": "jhon.smith@example.com",
        "first_name": "John",
        "last_name": "Smith",
        "prefix": "Mr.",
        "suffix": "Sr",
        "age": 33,
        "job_title": "Software Enginner",
        "company": "Eventbrite",
        "website": "https://mysite.com",
        "blog": "https://mysite.com",
        "gender": "male",
        "birth_date": "1984-12-06",
        "cell_phone": "555 555-1234",
        "work_phone": "555 555-1234",
        "addresses": {
          "home": {
            "address_1": null,
            "address_2": null,
            "city": null,
            "region": null,
            "postal_code": null,
            "country": null,
            "latitude": null,
            "longitude": null,
            "localized_address_display": "",
            "localized_area_display": "",
            "localized_multi_line_address_display": []
          },
          "ship": {
            "address_1": null,
            "address_2": null,
            "city": null,
            "region": null,
            "postal_code": null,
            "country": null,
            "latitude": null,
            "longitude": null,
            "localized_address_display": "",
            "localized_area_display": "",
            "localized_multi_line_address_display": []
          },
          "work": {
            "address_1": null,
            "address_2": null,
            "city": null,
            "region": null,
            "postal_code": null,
            "country": null,
            "latitude": null,
            "longitude": null,
            "localized_address_display": "",
            "localized_area_display": "",
            "localized_multi_line_address_display": []
          },
          "bill": {
            "address_1": null,
            "address_2": null,
            "city": null,
            "region": null,
            "postal_code": null,
            "country": null,
            "latitude": null,
            "longitude": null,
            "localized_address_display": "",
            "localized_area_display": "",
            "localized_multi_line_address_display": []
          }
        }
      },
      "questions": [
        {
          "id": "20090892",
          "label": "What's your question?",
          "type": "text",
          "required": false
        }
      ],
      "answers": [
        {
          "question_id": "20090892",
          "attendee_id": "1009831492",
          "question": "What's your question?",
          "type": "text",
          "answer": "This is my answer"
        }
      ],
      "barcodes": [
        {
          "barcode": "1234093511009831492001",
          "status": "unused",
          "created": "2018-08-18T22:24:03Z",
          "changed": "2018-08-18T22:24:03Z",
          "checkin_type": 0,
          "is_printed": false
        }
      ],
      "team": {
        "id": "12345",
        "name": "Great Team!",
        "date_joined": "2018-05-12T02:00:00Z",
        "event_id": "12345"
      },
      "affiliate": "affiliate_code",
      "checked_in": false,
      "cancelled": false,
      "refunded": false,
      "costs": {
        "base_price": {
          "currency": "USD",
          "value": 432,
          "major_value": "4.32",
          "display": "4.32 USD"
        },
        "gross": {
          "currency": "USD",
          "value": 432,
          "major_value": "4.32",
          "display": "4.32 USD"
        },
        "eventbrite_fee": {
          "currency": "USD",
          "value": 432,
          "major_value": "4.32",
          "display": "4.32 USD"
        },
        "payment_fee": {
          "currency": "USD",
          "value": 432,
          "major_value": "4.32",
          "display": "4.32 USD"
        },
        "tax": {
          "currency": "USD",
          "value": 432,
          "major_value": "4.32",
          "display": "4.32 USD"
        }
      },
      "status": "",
      "event_id": "12345",
      "event": {
        "id": "12345",
        "name": {
          "text": "Some text",
          "html": "<p>Some text</p>"
        },
        "description": {
          "text": "Some text",
          "html": "<p>Some text</p>"
        },
        "start": {
          "timezone": "America/Los_Angeles",
          "utc": "2018-05-12T02:00:00Z",
          "local": "2018-05-11T19:00:00"
        },
        "end": {
          "timezone": "America/Los_Angeles",
          "utc": "2018-05-12T02:00:00Z",
          "local": "2018-05-11T19:00:00"
        },
        "url": "https://www.eventbrite.com/e/45263283700",
        "vanity_url": "https://testevent.eventbrite.com",
        "created": "2017-02-19T20:28:14Z",
        "changed": "2017-02-19T20:28:14Z",
        "published": "2017-02-19T20:28:14Z",
        "status": "live",
        "currency": "USD",
        "online_event": false,
        "organization_id": "",
        "organizer_id": "",
        "organizer": {
          "name": "",
          "description": {
            "text": "Some text",
            "html": "<p>Some text</p>"
          },
          "long_description": {
            "text": "Some text",
            "html": "<p>Some text</p>"
          },
          "logo_id": null,
          "logo": {
            "id": "12345",
            "url": "https://image.com",
            "crop_mask": {
              "top_left": {
                "y": 15,
                "x": 15
              },
              "width": 15,
              "height": 15
            },
            "original": {
              "url": "https://image.com",
              "width": 800,
              "height": 400
            },
            "aspect_ratio": "2",
            "edge_color": "#6a7c8b",
            "edge_color_set": true
          },
          "resource_uri": "https://www.eventbriteapi.com/v3/organizers/12345/",
          "id": "12345",
          "url": "https://www.eventbrite.com/o/12345/",
          "num_past_events": 5,
          "num_future_events": 1,
          "twitter": "@abc",
          "facebook": "abc"
        },
        "logo_id": null,
        "logo": {
          "id": "12345",
          "url": "https://image.com",
          "crop_mask": {
            "top_left": {
              "y": 15,
              "x": 15
            },
            "width": 15,
            "height": 15
          },
          "original": {
            "url": "https://image.com",
            "width": 800,
            "height": 400
          },
          "aspect_ratio": "2",
          "edge_color": "#6a7c8b",
          "edge_color_set": true
        },
        "venue": {
          "name": "Great Venue",
          "age_restriction": null,
          "capacity": 100,
          "address": {
            "address_1": null,
            "address_2": null,
            "city": null,
            "region": null,
            "postal_code": null,
            "country": null,
            "latitude": null,
            "longitude": null
          },
          "resource_uri": "https://www.eventbriteapi.com/v3/venues/3003/",
          "id": "3003",
          "latitude": "49.28497549999999",
          "longitude": "123.11082529999999"
        },
        "format_id": null,
        "format": {
          "id": "2",
          "name": "Seminar or Talk",
          "name_localized": "Seminar or Talk",
          "short_name": "Seminar",
          "short_name_localized": "Seminar",
          "resource_uri": "https://www.eventbriteapi.com/v3/formats/2/"
        },
        "category": {
          "id": "103",
          "resource_uri": "https://www.eventbriteapi.com/v3/categories/103/",
          "name": "Music",
          "name_localized": "Music",
          "short_name": "Music",
          "short_name_localized": "Music",
          "subcategories": [
            {
              "id": "3003",
              "resource_uri": "https://www.eventbriteapi.com/v3/subcategories/3003/",
              "name": "Classical",
              "parent_category": {}
            }
          ]
        },
        "subcategory": {
          "id": "3003",
          "resource_uri": "https://www.eventbriteapi.com/v3/subcategories/3003/",
          "name": "Classical",
          "parent_category": {
            "id": "103",
            "resource_uri": "https://www.eventbriteapi.com/v3/categories/103/",
            "name": "Music",
            "name_localized": "Music",
            "short_name": "Music",
            "short_name_localized": "Music",
            "subcategories": [
              {}
            ]
          }
        },
        "music_properties": {
          "age_restriction": null,
          "presented_by": null,
          "door_time": "2019-05-12T-19:00:00Z"
        },
        "bookmark_info": {
          "bookmarked": false
        },
        "ticket_availability": {
          "has_available_tickets": false,
          "minimum_ticket_price": {
            "currency": "USD",
            "value": 432,
            "major_value": "4.32",
            "display": "4.32 USD"
          },
          "maximum_ticket_price": {
            "currency": "USD",
            "value": 432,
            "major_value": "4.32",
            "display": "4.32 USD"
          },
          "is_sold_out": true,
          "start_sales_date": {
            "timezone": "America/Los_Angeles",
            "utc": "2018-05-12T02:00:00Z",
            "local": "2018-05-11T19:00:00"
          },
          "waitlist_available": false
        },
        "listed": false,
        "shareable": false,
        "invite_only": false,
        "show_remaining": true,
        "password": "12345",
        "capacity": 100,
        "capacity_is_custom": true,
        "tx_time_limit": "12345",
        "hide_start_date": true,
        "hide_end_date": true,
        "locale": "en_US",
        "is_locked": true,
        "privacy_setting": "unlocked",
        "is_externally_ticketed": false,
        "external_ticketing": {
          "external_url": "",
          "ticketing_provider_name": "",
          "is_free": false,
          "minimum_ticket_price": {
            "currency": "USD",
            "value": 432,
            "major_value": "4.32",
            "display": "4.32 USD"
          },
          "maximum_ticket_price": {
            "currency": "USD",
            "value": 432,
            "major_value": "4.32",
            "display": "4.32 USD"
          },
          "sales_start": "",
          "sales_end": ""
        },
        "is_series": true,
        "is_series_parent": true,
        "series_id": "56321",
        "is_reserved_seating": true,
        "show_pick_a_seat": true,
        "show_seatmap_thumbnail": true,
        "show_colors_in_seatmap_thumbnail": true,
        "is_free": true,
        "source": "api",
        "version": "null",
        "resource_uri": "https://www.eventbriteapi.com/v3/events/1234/",
        "event_sales_status": {
          "sales_status": "text",
          "start_sales_date": {
            "timezone": "America/Los_Angeles",
            "utc": "2018-05-12T02:00:00Z",
            "local": "2018-05-11T19:00:00"
          }
        },
        "checkout_settings": {
          "created": "2018-01-31T13:00:00Z",
          "changed": "2018-01-31T13:00:00Z",
          "country_code": "",
          "currency_code": "",
          "checkout_method": "paypal",
          "offline_settings": [
            {
              "payment_method": "CASH",
              "instructions": ""
            }
          ],
          "user_instrument_vault_id": ""
        }
      },
      "order_id": "12345",
      "order": {
        "id": "442719216",
        "created": "2018-05-12T02:00:00Z",
        "changed": "2018-05-12T02:00:00Z",
        "name": "John Smith",
        "first_name": "John",
        "last_name": "Smith",
        "email": "john.smith@example.com",
        "costs": {
          "base_price": {
            "currency": "USD",
            "value": 432,
            "major_value": "4.32",
            "display": "4.32 USD"
          },
          "gross": {
            "currency": "USD",
            "value": 432,
            "major_value": "4.32",
            "display": "4.32 USD"
          },
          "eventbrite_fee": {
            "currency": "USD",
            "value": 432,
            "major_value": "4.32",
            "display": "4.32 USD"
          },
          "payment_fee": {
            "currency": "USD",
            "value": 432,
            "major_value": "4.32",
            "display": "4.32 USD"
          },
          "tax": {
            "currency": "USD",
            "value": 432,
            "major_value": "4.32",
            "display": "4.32 USD"
          }
        },
        "event_id": "17937020110",
        "event": {
          "id": "12345",
          "name": {
            "text": "Some text",
            "html": "<p>Some text</p>"
          },
          "description": {
            "text": "Some text",
            "html": "<p>Some text</p>"
          },
          "start": {
            "timezone": "America/Los_Angeles",
            "utc": "2018-05-12T02:00:00Z",
            "local": "2018-05-11T19:00:00"
          },
          "end": {
            "timezone": "America/Los_Angeles",
            "utc": "2018-05-12T02:00:00Z",
            "local": "2018-05-11T19:00:00"
          },
          "url": "https://www.eventbrite.com/e/45263283700",
          "vanity_url": "https://testevent.eventbrite.com",
          "created": "2017-02-19T20:28:14Z",
          "changed": "2017-02-19T20:28:14Z",
          "published": "2017-02-19T20:28:14Z",
          "status": "live",
          "currency": "USD",
          "online_event": false,
          "organization_id": "",
          "organizer_id": "",
          "organizer": {
            "name": "",
            "description": {
              "text": "Some text",
              "html": "<p>Some text</p>"
            },
            "long_description": {
              "text": "Some text",
              "html": "<p>Some text</p>"
            },
            "logo_id": null,
            "logo": {
              "id": "12345",
              "url": "https://image.com",
              "crop_mask": {
                "top_left": {
                  "y": 15,
                  "x": 15
                },
                "width": 15,
                "height": 15
              },
              "original": {
                "url": "https://image.com",
                "width": 800,
                "height": 400
              },
              "aspect_ratio": "2",
              "edge_color": "#6a7c8b",
              "edge_color_set": true
            },
            "resource_uri": "https://www.eventbriteapi.com/v3/organizers/12345/",
            "id": "12345",
            "url": "https://www.eventbrite.com/o/12345/",
            "num_past_events": 5,
            "num_future_events": 1,
            "twitter": "@abc",
            "facebook": "abc"
          },
          "logo_id": null,
          "logo": {
            "id": "12345",
            "url": "https://image.com",
            "crop_mask": {
              "top_left": {
                "y": 15,
                "x": 15
              },
              "width": 15,
              "height": 15
            },
            "original": {
              "url": "https://image.com",
              "width": 800,
              "height": 400
            },
            "aspect_ratio": "2",
            "edge_color": "#6a7c8b",
            "edge_color_set": true
          },
          "venue": {
            "name": "Great Venue",
            "age_restriction": null,
            "capacity": 100,
            "address": {
              "address_1": null,
              "address_2": null,
              "city": null,
              "region": null,
              "postal_code": null,
              "country": null,
              "latitude": null,
              "longitude": null
            },
            "resource_uri": "https://www.eventbriteapi.com/v3/venues/3003/",
            "id": "3003",
            "latitude": "49.28497549999999",
            "longitude": "123.11082529999999"
          },
          "format_id": null,
          "format": {
            "id": "2",
            "name": "Seminar or Talk",
            "name_localized": "Seminar or Talk",
            "short_name": "Seminar",
            "short_name_localized": "Seminar",
            "resource_uri": "https://www.eventbriteapi.com/v3/formats/2/"
          },
          "category": {
            "id": "103",
            "resource_uri": "https://www.eventbriteapi.com/v3/categories/103/",
            "name": "Music",
            "name_localized": "Music",
            "short_name": "Music",
            "short_name_localized": "Music",
            "subcategories": [
              {
                "id": "3003",
                "resource_uri": "https://www.eventbriteapi.com/v3/subcategories/3003/",
                "name": "Classical",
                "parent_category": {}
              }
            ]
          },
          "subcategory": {
            "id": "3003",
            "resource_uri": "https://www.eventbriteapi.com/v3/subcategories/3003/",
            "name": "Classical",
            "parent_category": {
              "id": "103",
              "resource_uri": "https://www.eventbriteapi.com/v3/categories/103/",
              "name": "Music",
              "name_localized": "Music",
              "short_name": "Music",
              "short_name_localized": "Music",
              "subcategories": [
                {}
              ]
            }
          },
          "music_properties": {
            "age_restriction": null,
            "presented_by": null,
            "door_time": "2019-05-12T-19:00:00Z"
          },
          "bookmark_info": {
            "bookmarked": false
          },
          "ticket_availability": {
            "has_available_tickets": false,
            "minimum_ticket_price": {
              "currency": "USD",
              "value": 432,
              "major_value": "4.32",
              "display": "4.32 USD"
            },
            "maximum_ticket_price": {
              "currency": "USD",
              "value": 432,
              "major_value": "4.32",
              "display": "4.32 USD"
            },
            "is_sold_out": true,
            "start_sales_date": {
              "timezone": "America/Los_Angeles",
              "utc": "2018-05-12T02:00:00Z",
              "local": "2018-05-11T19:00:00"
            },
            "waitlist_available": false
          },
          "listed": false,
          "shareable": false,
          "invite_only": false,
          "show_remaining": true,
          "password": "12345",
          "capacity": 100,
          "capacity_is_custom": true,
          "tx_time_limit": "12345",
          "hide_start_date": true,
          "hide_end_date": true,
          "locale": "en_US",
          "is_locked": true,
          "privacy_setting": "unlocked",
          "is_externally_ticketed": false,
          "external_ticketing": {
            "external_url": "",
            "ticketing_provider_name": "",
            "is_free": false,
            "minimum_ticket_price": {
              "currency": "USD",
              "value": 432,
              "major_value": "4.32",
              "display": "4.32 USD"
            },
            "maximum_ticket_price": {
              "currency": "USD",
              "value": 432,
              "major_value": "4.32",
              "display": "4.32 USD"
            },
            "sales_start": "",
            "sales_end": ""
          },
          "is_series": true,
          "is_series_parent": true,
          "series_id": "56321",
          "is_reserved_seating": true,
          "show_pick_a_seat": true,
          "show_seatmap_thumbnail": true,
          "show_colors_in_seatmap_thumbnail": true,
          "is_free": true,
          "source": "api",
          "version": "null",
          "resource_uri": "https://www.eventbriteapi.com/v3/events/1234/",
          "event_sales_status": {
            "sales_status": "text",
            "start_sales_date": {
              "timezone": "America/Los_Angeles",
              "utc": "2018-05-12T02:00:00Z",
              "local": "2018-05-11T19:00:00"
            }
          },
          "checkout_settings": {
            "created": "2018-01-31T13:00:00Z",
            "changed": "2018-01-31T13:00:00Z",
            "country_code": "",
            "currency_code": "",
            "checkout_method": "paypal",
            "offline_settings": [
              {
                "payment_method": "CASH",
                "instructions": ""
              }
            ],
            "user_instrument_vault_id": ""
          }
        },
        "attendees": [
          {}
        ],
        "time_remaining": 100,
        "resource_uri": "https://www.eventbriteapi.com/v3/orders/1234/",
        "status": "placed",
        "ticket_buyer_settings": {
          "confirmation_message": {
            "text": "Some text",
            "html": "<p>Some text</p>"
          },
          "instructions": {
            "text": "Some text",
            "html": "<p>Some text</p>"
          },
          "event_id": "3003",
          "refund_request_enabled": false,
          "ticket_class_confirmation_settings": [
            {
              "ticket_class_id": "1023",
              "event_id": "3003",
              "confirmation_message": {
                "text": "Some text",
                "html": "<p>Some text</p>"
              }
            }
          ]
        }
      },
      "guestlist_id": null,
      "invited_by": null,
      "assigned_unit": {
        "unit_id": "18-1:2",
        "description": "Some description",
        "location_image": {
          "url": "",
          "x": 0,
          "y": 0
        },
        "labels": [
          "100",
          "A",
          "23"
        ],
        "titles": [
          "Area",
          "Row",
          "Seat"
        ]
      },
      "delivery_method": "electronic",
      "variant_id": null,
      "resource_uri": ""
    }
  ]
}